function aoc:resetdata
scoreboard players set #0 fish 0
scoreboard players set #1 fish 1

scoreboard players add 1 fish 1
scoreboard players add 1 fish 1
scoreboard players add 1 fish 1
scoreboard players add 1 fish 1
scoreboard players add 1 fish 1
scoreboard players add 1 fish 1
scoreboard players add 1 fish 1
scoreboard players add 4 fish 1
scoreboard players add 1 fish 1
scoreboard players add 2 fish 1
scoreboard players add 1 fish 1
scoreboard players add 1 fish 1
scoreboard players add 4 fish 1
scoreboard players add 1 fish 1
scoreboard players add 1 fish 1
scoreboard players add 1 fish 1
scoreboard players add 5 fish 1
scoreboard players add 1 fish 1
scoreboard players add 1 fish 1
scoreboard players add 1 fish 1
scoreboard players add 1 fish 1
scoreboard players add 1 fish 1
scoreboard players add 1 fish 1
scoreboard players add 1 fish 1
scoreboard players add 1 fish 1
scoreboard players add 1 fish 1
scoreboard players add 1 fish 1
scoreboard players add 1 fish 1
scoreboard players add 1 fish 1
scoreboard players add 5 fish 1
scoreboard players add 1 fish 1
scoreboard players add 1 fish 1
scoreboard players add 1 fish 1
scoreboard players add 1 fish 1
scoreboard players add 3 fish 1
scoreboard players add 1 fish 1
scoreboard players add 1 fish 1
scoreboard players add 2 fish 1
scoreboard players add 1 fish 1
scoreboard players add 2 fish 1
scoreboard players add 1 fish 1
scoreboard players add 3 fish 1
scoreboard players add 3 fish 1
scoreboard players add 4 fish 1
scoreboard players add 1 fish 1
scoreboard players add 4 fish 1
scoreboard players add 1 fish 1
scoreboard players add 1 fish 1
scoreboard players add 3 fish 1
scoreboard players add 1 fish 1
scoreboard players add 1 fish 1
scoreboard players add 5 fish 1
scoreboard players add 1 fish 1
scoreboard players add 1 fish 1
scoreboard players add 1 fish 1
scoreboard players add 1 fish 1
scoreboard players add 4 fish 1
scoreboard players add 1 fish 1
scoreboard players add 1 fish 1
scoreboard players add 5 fish 1
scoreboard players add 1 fish 1
scoreboard players add 1 fish 1
scoreboard players add 1 fish 1
scoreboard players add 4 fish 1
scoreboard players add 1 fish 1
scoreboard players add 5 fish 1
scoreboard players add 1 fish 1
scoreboard players add 1 fish 1
scoreboard players add 1 fish 1
scoreboard players add 3 fish 1
scoreboard players add 1 fish 1
scoreboard players add 1 fish 1
scoreboard players add 5 fish 1
scoreboard players add 3 fish 1
scoreboard players add 1 fish 1
scoreboard players add 1 fish 1
scoreboard players add 1 fish 1
scoreboard players add 1 fish 1
scoreboard players add 1 fish 1
scoreboard players add 4 fish 1
scoreboard players add 1 fish 1
scoreboard players add 1 fish 1
scoreboard players add 1 fish 1
scoreboard players add 1 fish 1
scoreboard players add 1 fish 1
scoreboard players add 2 fish 1
scoreboard players add 4 fish 1
scoreboard players add 1 fish 1
scoreboard players add 1 fish 1
scoreboard players add 1 fish 1
scoreboard players add 1 fish 1
scoreboard players add 4 fish 1
scoreboard players add 1 fish 1
scoreboard players add 2 fish 1
scoreboard players add 2 fish 1
scoreboard players add 1 fish 1
scoreboard players add 1 fish 1
scoreboard players add 1 fish 1
scoreboard players add 3 fish 1
scoreboard players add 1 fish 1
scoreboard players add 2 fish 1
scoreboard players add 5 fish 1
scoreboard players add 1 fish 1
scoreboard players add 4 fish 1
scoreboard players add 1 fish 1
scoreboard players add 1 fish 1
scoreboard players add 1 fish 1
scoreboard players add 3 fish 1
scoreboard players add 1 fish 1
scoreboard players add 1 fish 1
scoreboard players add 4 fish 1
scoreboard players add 1 fish 1
scoreboard players add 1 fish 1
scoreboard players add 1 fish 1
scoreboard players add 1 fish 1
scoreboard players add 1 fish 1
scoreboard players add 1 fish 1
scoreboard players add 1 fish 1
scoreboard players add 4 fish 1
scoreboard players add 1 fish 1
scoreboard players add 1 fish 1
scoreboard players add 4 fish 1
scoreboard players add 1 fish 1
scoreboard players add 1 fish 1
scoreboard players add 1 fish 1
scoreboard players add 1 fish 1
scoreboard players add 1 fish 1
scoreboard players add 1 fish 1
scoreboard players add 1 fish 1
scoreboard players add 2 fish 1
scoreboard players add 1 fish 1
scoreboard players add 1 fish 1
scoreboard players add 5 fish 1
scoreboard players add 1 fish 1
scoreboard players add 1 fish 1
scoreboard players add 1 fish 1
scoreboard players add 4 fish 1
scoreboard players add 1 fish 1
scoreboard players add 1 fish 1
scoreboard players add 5 fish 1
scoreboard players add 1 fish 1
scoreboard players add 1 fish 1
scoreboard players add 5 fish 1
scoreboard players add 3 fish 1
scoreboard players add 3 fish 1
scoreboard players add 5 fish 1
scoreboard players add 3 fish 1
scoreboard players add 1 fish 1
scoreboard players add 1 fish 1
scoreboard players add 1 fish 1
scoreboard players add 4 fish 1
scoreboard players add 1 fish 1
scoreboard players add 1 fish 1
scoreboard players add 1 fish 1
scoreboard players add 1 fish 1
scoreboard players add 1 fish 1
scoreboard players add 1 fish 1
scoreboard players add 5 fish 1
scoreboard players add 3 fish 1
scoreboard players add 1 fish 1
scoreboard players add 2 fish 1
scoreboard players add 1 fish 1
scoreboard players add 1 fish 1
scoreboard players add 1 fish 1
scoreboard players add 4 fish 1
scoreboard players add 1 fish 1
scoreboard players add 3 fish 1
scoreboard players add 1 fish 1
scoreboard players add 5 fish 1
scoreboard players add 1 fish 1
scoreboard players add 1 fish 1
scoreboard players add 2 fish 1
scoreboard players add 1 fish 1
scoreboard players add 1 fish 1
scoreboard players add 1 fish 1
scoreboard players add 1 fish 1
scoreboard players add 1 fish 1
scoreboard players add 5 fish 1
scoreboard players add 1 fish 1
scoreboard players add 1 fish 1
scoreboard players add 1 fish 1
scoreboard players add 1 fish 1
scoreboard players add 1 fish 1
scoreboard players add 2 fish 1
scoreboard players add 1 fish 1
scoreboard players add 1 fish 1
scoreboard players add 1 fish 1
scoreboard players add 1 fish 1
scoreboard players add 4 fish 1
scoreboard players add 3 fish 1
scoreboard players add 2 fish 1
scoreboard players add 1 fish 1
scoreboard players add 2 fish 1
scoreboard players add 4 fish 1
scoreboard players add 1 fish 1
scoreboard players add 3 fish 1
scoreboard players add 1 fish 1
scoreboard players add 5 fish 1
scoreboard players add 1 fish 1
scoreboard players add 2 fish 1
scoreboard players add 1 fish 1
scoreboard players add 4 fish 1
scoreboard players add 1 fish 1
scoreboard players add 1 fish 1
scoreboard players add 1 fish 1
scoreboard players add 1 fish 1
scoreboard players add 1 fish 1
scoreboard players add 3 fish 1
scoreboard players add 1 fish 1
scoreboard players add 4 fish 1
scoreboard players add 1 fish 1
scoreboard players add 1 fish 1
scoreboard players add 1 fish 1
scoreboard players add 1 fish 1
scoreboard players add 3 fish 1
scoreboard players add 1 fish 1
scoreboard players add 3 fish 1
scoreboard players add 3 fish 1
scoreboard players add 1 fish 1
scoreboard players add 4 fish 1
scoreboard players add 3 fish 1
scoreboard players add 4 fish 1
scoreboard players add 1 fish 1
scoreboard players add 1 fish 1
scoreboard players add 1 fish 1
scoreboard players add 1 fish 1
scoreboard players add 5 fish 1
scoreboard players add 1 fish 1
scoreboard players add 3 fish 1
scoreboard players add 3 fish 1
scoreboard players add 2 fish 1
scoreboard players add 5 fish 1
scoreboard players add 3 fish 1
scoreboard players add 1 fish 1
scoreboard players add 1 fish 1
scoreboard players add 3 fish 1
scoreboard players add 1 fish 1
scoreboard players add 3 fish 1
scoreboard players add 1 fish 1
scoreboard players add 1 fish 1
scoreboard players add 1 fish 1
scoreboard players add 1 fish 1
scoreboard players add 4 fish 1
scoreboard players add 1 fish 1
scoreboard players add 1 fish 1
scoreboard players add 1 fish 1
scoreboard players add 1 fish 1
scoreboard players add 3 fish 1
scoreboard players add 1 fish 1
scoreboard players add 5 fish 1
scoreboard players add 1 fish 1
scoreboard players add 1 fish 1
scoreboard players add 1 fish 1
scoreboard players add 4 fish 1
scoreboard players add 4 fish 1
scoreboard players add 1 fish 1
scoreboard players add 1 fish 1
scoreboard players add 5 fish 1
scoreboard players add 5 fish 1
scoreboard players add 2 fish 1
scoreboard players add 4 fish 1
scoreboard players add 5 fish 1
scoreboard players add 1 fish 1
scoreboard players add 1 fish 1
scoreboard players add 1 fish 1
scoreboard players add 1 fish 1
scoreboard players add 5 fish 1
scoreboard players add 1 fish 1
scoreboard players add 1 fish 1
scoreboard players add 2 fish 1
scoreboard players add 1 fish 1
scoreboard players add 1 fish 1
scoreboard players add 1 fish 1
scoreboard players add 1 fish 1
scoreboard players add 1 fish 1
scoreboard players add 1 fish 1
scoreboard players add 1 fish 1
scoreboard players add 1 fish 1
scoreboard players add 1 fish 1
scoreboard players add 1 fish 1
scoreboard players add 2 fish 1
scoreboard players add 1 fish 1
scoreboard players add 1 fish 1
scoreboard players add 1 fish 1
scoreboard players add 1 fish 1
scoreboard players add 1 fish 1
scoreboard players add 1 fish 1
scoreboard players add 5 fish 1
scoreboard players add 1 fish 1
scoreboard players add 1 fish 1
scoreboard players add 1 fish 1
scoreboard players add 1 fish 1
scoreboard players add 1 fish 1
scoreboard players add 1 fish 1
scoreboard players add 3 fish 1
scoreboard players add 1 fish 1
scoreboard players add 1 fish 1
scoreboard players add 2 fish 1
scoreboard players add 1 fish 1
scoreboard players add 1 fish 1
